// Codes take up two lines:
//   - First line: mixed-case replacements for captioning.
//   - Second line: lowercase, semicolon-separated keyword values.
// Replacement Levels:
//   - Caption: first level is the full expansion. Optional second level replacement is the full expansion plus the code enclosed in parentheses. Very optional third level for overlaps and combinations of values.
//   - Keywords: first level is "code (or abbreviation); expansion; synonyms (optional)". Second level is just the lowercase full expansion of the code. Very optional third level for overlaps and combinations of values.


// ----------------------------
// -- University of Delaware --
// ----------------------------
UD	University of Delaware
ud	ud; university of delaware


// ------------------------------
// -- Division of Student Life --
// ------------------------------
CCSD	Center for Counseling and Student Development	Center for Counseling and Student Development (CCSD)
ccsd	ccsd; center for counseling and student development	center for counseling and student development

DSL	Division of Student Life	Division of Student Life (DSL)
dsl	dsl; division of student life	division of student life

FSLL	Fraternity and Sorority Leadership and Learning	Fraternity and Sorority Leadership and Learning (FSLL)
fsll	fsll; fraternity and sorority leadership and learning	fraternity and sorority leadership and learning

OSC	Office of Student Conduct	Office of Student Conduct (OSC)
osc	osc; office of student conduct	office of student conduct

OTP	Orientation and Transition Programs	Orientation and Transition Programs (OTP)
otp	otp; orientation and transition programs	orientation and transition programs

RESLIFE	\ResLife\	\ResLife#2\
ResLife	Residence Life and Housing	Residence Life and Housing (RLH)
reslife	reslife; residence life and housing	residence life and housing

SDI	Student Diversity and Inclusion	Student Diversity and Inclusion (SDI)
sdi	sdi; student diversity and inclusion	student diversity and inclusion

SHS	Student Health Services	Student Health Services (SHS)
shs	shs; student health services	student health services

SSA	Student Services for Athletes	Student Services for Athletes (SSA)
ssa	ssa; student services for athletes	student services for athletes

SWHP	Student Wellness and Health Promotion	Student Wellness and Health Promotion (SWHP)
swhp	swhp; student wellness and health promotion	student wellness and health promotion

USC	University Student Centers	University Student Centers (USC)
usc	usc; university student centers	university student centers


// -----------------------------
// -- Department of Athletics --
// -----------------------------
DACCR	Department of Athletics, Community and Campus Recreation	Department of Athletics, Community and Campus Recreation (DACCR)
daccr	daccr; department of athletics, community and campus recreation	department of athletics, community and campus recreation

LAX	Lacrosse	Lacrosse (LAX)
lax	lax; lacrosse	lacrosse

MLAX	Men's \LAX\	Men's \LAX#2\
mlax	\lax\; mens \lax#2\; men's \lax#2\	men's \lax#2\

WLAX	Women's \LAX\	Women's \LAX#2\
wlax	\lax\; womens \lax#2\; women's \lax#2\	women's \lax#2\


// --------------------------------------------------------------------------------------------
// -- Other departments, organizations, units, structures, initiatives, and things and stuff --
// --------------------------------------------------------------------------------------------
AAP	Associate in Arts Program	Associate in Arts Program (AAP)
aap	aap; associate in arts program	associate in arts program

AEC	Academic Enrichment Center	Academic Enrichment Center (AEC)
aec	aec; academic enrichment center; office of academic enrichment	academic enrichment center

AMT	Assistive Medical Technologies	Assistive Medical Technologies (AMT)
amt	amt; assistive medical technologies	assistive medical technologies

APSA	Asian and Pacific Islander Student Association	Asian and Pacific Islander Student Association (APSA)
apsa	apsa; asian and pacific islander student association	asian and pacific islander student association

ATS	Academic Technology Services	Academic Technology Services (ATS)
ats	ats; academic technology services	academic technology services

BAO	Black Alumni Organization	Black Alumni Organization (BAO)
bao	bao; black alumni organization	black alumni organization

BHLP	Blue Hen Leadership Program	Blue Hen Leadership Program (BHLP)
bhlp	bhlp; blue hen leadership program	blue hen leadership program

BoT	Board of Trustees	Board of Trustees (BoT)
bot	bot; board of trustees	board of trustees

BSU	Black Student Union	Black Student Union (BSU)
bsu	bsu; black student union	black student union

// CBBI: Combination departmental and building acronym
CBBI	Center for Biomedical and Brain Imaging	Center for Biomedical and Brain Imaging (CBBI)	Center for Biomedical and Brain Imaging (CBBI / NC44)
cbbi	cbbi; center for biomedical and brain imaging	center for biomedical and brain imaging	cbbi; center for biomedical and brain imaging; nc44
//

CBC	Center for Black Culture	Center for Black Culture (CBC)
cbc	cbc; center for black culture	center for black culture

CBI	Chemistry-Biology Interface	Chemistry-Biology Interface (CBI)
cbi	cbi; chemistry-biology interface	chemistry-biology interface

CCEI	Catalysis Center for Energy Innovation	Catalysis Center for Energy Innovation (CCEI)
ccei	ccei; catalysis center for energy innovation	catalysis center for energy innovation

CDS	Center for Disabilities Studies	Center for Disabilities Studies (CDS)
cds	cds; center for disabilities studies	center for disabilities studies

CEI	Community Engagement Initiative	Community Engagement Initiative (CEI)
cei	cei; community engagement initiative; blue hens engage	community engagement initiative

// CFEE: Deprecation - use CTAL {{{
CFEE	Center for Educational Effectiveness	Center for Educational Effectiveness (CFEE)
cfee	cfee; center for educational effectiveness	center for educational effectiveness
// }}}

CFCS	Core Facilities Central Support	Core Facilities Central Support (CFCS)
cfcs	cfcs; Core Facilities Central Support	Core Facilities Central Support

CGPS	Center for Global Programs and Services	Center for Global Programs and Services (CGPS)
cgps	cgps; center for global programs and services	center for global programs and services

CHPS	Center for Health Profession Studies	Center for Health Profession Studies (CHPS)
chps	chps; center for health profession studies	center for health profession studies

CHRC	Center for Human Research Coordination	Center for Human Research Coordination (CHRC)
chrc	chrc; center for human research coordination	center for human research coordination

CIE	Center for Intercultural Engagement 	Center for Intercultural Engagement (CIE)
cie	cie; center for intercultural engagement	center for intercultural engagement

CLSC	Career and Life Studies Certificate	Career and Life Studies Certificate (CLSC)
clsc	clsc; career and life studies certificate	career and life studies certificate

// CPA: Deprecation - use OCM {{{
CPA	Communications & Public Affairs	Communications & Public Affairs (CPA)
cpa	cpa; communications and public affairs; communications and public affairs	communications and public affairs
// }}}

CPI	Center for Plastics Innovation	Center for Plastics Innovation (CPI)
cpi	cpi; center for plastics innovation	center for plastics innovation

CPAB	Cultural Programming Advisory Board	Cultural Programming Advisory Board (CPAB)
cpab	cpab; cultural programming advisory board	cultural programming advisory board

CRSI	College Readiness Scholars Institute	College Readiness Scholars Institute (CRSI)
crsi	crsi; college readiness scholars institute	college readiness scholars institute

CSC	Career Services Center	Career Services Center (CSC)
csc	csc; career services center	career services center

CSI	Cybersecurity Initiative	Cybersecurity Initiative (CSI)
csi	csi; cybersecurity initiative	cybersecurity initiative

CTAL	Center for Teaching and Assessment of Learning	Center for Teaching and Assessment of Learning (CTAL)
ctal	ctal; center for teaching and assessment of learning	center for teaching and assessment of learning

CTCR	Center for Translational Cancer Research	Center for Translational Cancer Research (CTCR)
ctcr	ctcr; center for translational cancer research	center for translational cancer research

DAR	Development and Alumni Relations	Development and Alumni Relations (DAR)
dar	dar; development and alumni relations	development and alumni relations

DARWIN	Delaware Advanced Research Workforce and Innovation Network	Delaware Advanced Research Workforce and Innovation Network (DARWIN)
darwin	darwin; delaware advanced research workforce and innovation network	delaware advanced research workforce and innovation network

DCMR	Delaware Center for Musculoskeletal Research	Delaware Center for Musculoskeletal Research (DCMR)
dcmr	dcmr; delaware center for musculoskeletal research	delaware center for musculoskeletal research

DCT	Delaware Center for Transportation	Delaware Center for Transportation (DCT)
dct	dct; delaware center for transportation	delaware center for transportation

DDI	Delaware Design Institute	Delaware Design Institute (DDI)
ddi	ddi; delaware design institute	delaware design institute

DEI	Delaware Energy Institute	Delaware Energy Institute (DEI)
dei	dei; delaware energy institute	delaware energy institute

DENIN	Delaware Environmental Institute	Delaware Environmental Institute (DENIN)
denin	denin; delaware environmental institute	delaware environmental institute

DEOS	Delaware Environmental Observing System	Delaware Environmental Observing System (DEOS)
deos	deos; delaware environmental observing system	delaware environmental observing system

DGS	Delaware Geological Survey	Delaware Geological Survey (DGS)
dgs	dgs; delaware geological survey	delaware geological survey

DLLC	Department of Languages Literatures and Cultures	Department of Languages Literatures and Cultures (DLLC)
dllc	dllc; department of languages literatures and cultures	department of languages literatures and cultures

// DRI: Deprecation - use CHRC {{{
DRI	Delaware Rehabilitation Institute	Delaware Rehabilitation Institute (DRI)
dri	dri; delaware rehabilitation institute	delaware rehabilitation institute
// }}}

DESGC	Delaware Space Grant Consortium	Delaware Space Grant Consortium (DESGC)
desgc	desgc; delaware space grant consortium	delaware space grant consortium

DSI	Data Science Institute	Data Science Institute (DSI)
dsi	dsi; data science institute	data science institute

DSS	Disability Support Services	Disability Support Services (DSS)
dss	dss; disability support services	disability support services

Edge	Edge Summer College Program
edge	edge; edge summer college program	edge summer college program

EHS	Environmental Health and Safety	Environmental Health and Safety (EHS)
ehs	ehs; environmental health and safety	environmental health and safety

EPSCOR	Established Program to Stimulate Competitive Research	Established Program to Stimulate Competitive Research (EPSCoR)
epscor	epscor; established program to stimulate competitive research	established program to stimulate competitive research

EWB	Engineers Without Borders	Engineers Without Borders (EWB)
ewb	ewb; engineers without borders	engineers without borders

FACSEN	Faculty Senate	University of Delaware Faculty Senate
facsen	faculty senate	university of delaware faculty senate

FREAS	Facilities, Real Estate, and Auxiliary Services	Facilities, Real Estate, and Auxiliary Services (FREAS)
freas	freas; facilities real estate and auxiliary services	facilities real estate and auxiliary services

FREAS-PPD	\FREAS\ - Planning and Project Delivery	\FREAS\ - Planning and Project Delivery (FREAS-PPD)
freas-ppd	\freas\; freas-ppd; planning and project delivery	\freas#2\ - planning and project delivery

GCR	Government and Community Relations	Government and Community Relations (GCR)
gcr	gcr; government and community relations	government and community relations

GIV	Grid-Integrated Vehicle	Grid-Integrated Vehicle (GIV)
giv	giv; grid-integrated vehicle	grid-integrated vehicle

HLGSA	Hispanic / Latino Graduate Student Association	Hispanic / Latino Graduate Student Association (HLGSA)
hlgsa	hlgsa; hispanic latino graduate student association	hispanic / latino graduate student association

Horn	Horn Entrepreneurship
horn	horn entrepreneurship

HR	Human Resources	Human Resources (HR)
hr	hr; human resources	human resources
IEC	Institute of Energy Conversion	Institute of Energy Conversion (IEC)

iec	iec; institute of energy conversion	institute of energy conversion
IGS	Institute for Global Studies	Institute for Global Studies (IGS)

igs	igs; institute for global studies	institute for global studies
INBRE	Delaware IDeA Network of Biomedical Research Excellence	Delaware IDeA Network of Biomedical Research Excellence (INBRE)

inbre	inbre; delaware idea network of biomedical research excellence	delaware idea network of biomedical research excellence
IRE	Office of Institutional Research and Effectiveness	Office of Institutional Research and Effectiveness (IRE)
ire	ire; office of institutional research and effectiveness	office of institutional research and effectiveness

ISSS	International Student and Scholar Services	International Student and Scholar Services (ISSS)
isss	isss; international student and scholar services	international student and scholar services

IT	Information Technologies	Information Technologies (IT)
it	it; information technologies	information technologies

ITUE	Institute for Transforming Undergraduate Education	Institute for Transforming Undergraduate Education (ITUE)
itue	itue; institute for transforming undergraduate education	institute for transforming undergraduate education

MADRASA	Muslim Association for Development in Religious Academia and Scholastic Achievement	Muslim Association for Development in Religious Academia and Scholastic Achievement (MADRASA)
madrasa	madrasa; muslim association for development in religious academia and scholastic achievement	muslim association for development in religious academia and scholastic achievement

MEPI	Middle East Partnership Initiative	Middle East Partnership Initiative (MEPI)
mepi	mepi; middle east partnership initiative	middle east partnership initiative

NSO	New Student Orientation	New Student Orientation (NSO)
nso	nso; new student orientation	new student orientation

OCM	Office of Communications and Marketing	Office of Communications and Marketing (OCM)
ocm	ocm; office of communications and marketing	office of communications and marketing

OAE	Office of Academic Enrichment	Office of Academic Enrichment (OAE)
oae	oae; office of academic enrichment	office of academic enrichment

OEI	Office of Equity and Inclusion	Office of Equity and Inclusion (OEI)
oei	oei; office of equity and inclusion	office of equity and inclusion

OEIP	Office of Economic Innovation and Partnerships	Office of Economic Innovation & Partnerships (OEIP)
oeip	oeip; office of economic innovation and partnerships	office of economic innovation and partnerships

// OISS: Deprecation - use ISSS {{{
OISS	Office of International Students and Scholars	Office of International Students and Scholars (OISS)
oiss	oiss; office of international students and scholars	office of international students and scholars
// }}}

OPFG	Office of Parent & Family Giving	Office of Parent & Family Giving (OPFG)
opfg	opfg; office of parent and family giving	office of parent and family giving

// ORI: Deprecation - use IRE {{{
ORI	Office of Institutional Research and Effectiveness	Office of Institutional Research and Effectiveness (IRE)
ori	ire; office of institutional research and effectiveness	office of institutional research and effectiveness
// }}}

// Office of Residence Life and Housing (ORLH): Deprecation - prefer RLH {{{
ORLH	\ResLife\	\ResLife#2\
orlh	\reslife\	\reslife#2\
// }}}

// OSL : Deprecation - prefer DSL {{{
OSL	Division of Student Life
osl	division of student life
// }}}

PBL	Problem-based learning	Problem-based learning (PBL)
pbl	pbl; problem-based learning	problem-based learning

PFLC	Parent & Family Leadership Council	Parent & Family Leadership Council (PFLC)
pflc	pflc; parent and family leadership council	parent and family leadership council

PLC	President's Leadership Council	President's Leadership Council (PLC)
plc	plc; presidents leadership council	presidents leadership council

PPD	Planning and Project Delivery	Planning and Project Delivery (PPD)
ppd	ppd; planning and project delivery	planning and project delivery

RAPID	Rapid Advancement in Process Intensification Deployment	Rapid Advancement in Process Intensification Deployment (RAPID)
rapid	rapid; rapid advancement in process intensification deployment; dei; delaware energy institute 	rapid advancement in process intensification deployment

REP	Resident Ensemble Players	Resident Ensemble Players (REP)
rep	rep; resident ensemble players	resident ensemble players

// RLH: Deprecation - prefer reslife {{{
RLH	\ResLife\	\ResLife#2\
rlh	\reslife\	\reslife#2\
// }}}

RSO	Registered Student Organization	Registered Student Organization (RSO)
rso	rso; registered student organization	registered student organization

SAA	\UDSAA\	\UDSAA#2\	\UDSAA#3\
saa	\udsaa\	\udsaa#2\	\udsaa#3\

SAF	Surface Analysis Facility	Surface Analysis Facility (SAF)
saf	saf; surface analysis facility	surface analysis facility

SBDC	Small Business Development Center	Small Business Development Center (SBDC)
sbdc	sbdc; small business development center	small business development center

SBTDC	Small Business and Technology Development Center	Small Business and Technology Development Center (SBTDC)
sbtdc	sbtdc; small business and technology development center	small business and technology development center

SCPAB	Student Centers Programming Advisory Board	Student Centers Programming Advisory Board (SCPAB)
scpab	student centers programming advisory board; scpab	student centers programming advisory board

SEPP	Center for Science Ethics and Public Policy	Center for Science Ethics and Public Policy (SEPP)
sepp	sepp; center for science ethics and public policy	Center for Science Ethics and Public Policy

SFS	Student Financial Services	Student Financial Services (SFS)
sfs	sfs; student financial services	student financial services

SGA	Student Government Association	Student Government Association (SGA)
sga	sga; student government association	student government association

SSSP	Student Support Services Program	Student Support Services Program (SSSP)
sssp	sssp; student support services program	student support services program

UARM	University Archives and Records Management	University Archives and Records Management (UARM)
uarm	uarm; university archives and records management	university archives and records management

UDAA	University of Delaware Alumni Association	University of Delaware Alumni Association (UDAA)
udaa	udaa; university of delaware alumni association	university of delaware alumni association

UDaB	University of Delaware Alternative Break	University of Delaware Alternative Break (UDaB)
udab	udab; university of delaware alternative break	university of delaware alternative break

UDARF	University of Delaware Association of Retired Faculty	University of Delaware Association of Retired Faculty (UDARF)
udarf	udarf; university of delaware association of retired faculty	university of delaware association of retired faculty

UDARI	University of Delaware Anti-Racism Initiative	University of Delaware Anti-Racism Initiative (UDARI)
udari	udari; university of delaware anti-racism initiative	university of delaware anti-racism initiative

// UDEI: Deprecation - prefer DEI {{{
UDEI	University of Delaware Energy Institute	University of Delaware Energy Institute (UDEI)
udei	udei; university of delaware energy institute	university of delaware energy institute
// }}}

UDCSI	\UD\ \CSI\	\UD\ \CSI\ (CSI)	\CSI\ at the \UD\	\CSI\ (CSI) at the \UD\
udcsi	ud; csi; \ud\ \csi\	\ud\ \csi\

UDLA	University of Delaware Library Association	University of Delaware Library Association (UDLA)
udla	udla; university of delaware library association	university of delaware library association

UDSAA	University of Delaware Student Alumni Ambassadors	University of Delaware Student Alumni Ambassadors (UDSAA)	Student Alumni Ambassadors
udsaa	udsaa; university of delaware student alumni ambassadors; saa	university of delaware student alumni ambassadors	student alumni ambassadors

UMS	University Media Services	University Media Services (UMS)
ums	ums; university media services	university media services

UNIV	University Studies	University Studies (UNIV)
univ	univ; university studies	university studies

// UREL: Deprecation - use URP {{{
UREL	Office of Undergraduate Research and Experiential Learning	Office of Undergraduate Research and Experiential Learning (UREL)
urel	urel; office of undergraduate research and experiential learning	office of undergraduate research and experiential learning
// }}}

URP	Undergraduate Research Program	Undergraduate Research Program (URP)
urp	urp; undergraduate research program	undergraduate research program


// ----------------------------------------------
// -- University of Delaware Police Department --
// ----------------------------------------------
CRU	Community Resource Unit	Community Resource Unit (CRU)
cru	cru; community resource unit	community resource unit

Police	University of Delaware Police Department
police	police; university of delaware police department; public safety	university of delaware police department

SWAT	Special Weapons and Tactics
swat	swat; special weapons and tactics; swat team;

UDPD	University of Delaware Police Department
udpd	udpd; university of delaware police department; police; public safety

UDECU	University of Delaware Emergency Care Unit	University of Delaware Emergency Care Unit (UDECU)
udecu	udecu; university of delaware emergency care unit; ems; emergency medical services; emt; emergency medical technician	university of delaware emergency care unit
